Add Motif Annotations — add_motifs_int • glymotif
…
    have_motifs(), count_motifs(), glyexp::experiment()

    Examples

library(glyexp)

exp <- real_experiment2

exp |>
  add_motifs_lgl(c(
    lacnac = "Gal(??-?)GlcNAc(??-",
    sia_lacnac = "Neu5Ac(??-?)Gal(??-?)GlcNAc(??-"
  )) |>
  get_var_info()
#> # A tibble: 67 × 5
#>    variable                glycan_composition glycan_structure lacnac sia_lacnac
#>    <glue>                  <comp>             <struct>         <lgl>  <lgl>     
#>  1 Man(3)GlcNAc(3)         Man(3)GlcNAc(3)    GlcNAc(?1-?)Man… FALSE  FALSE     
#>  2 Man(3)GlcNAc(7)         Man(3)GlcNAc(7)    GlcNAc(?1-?)[Gl… FALSE  FALSE     
#>  3 Man(5)GlcNAc(2)         Man(5)GlcNAc(2)    Man(?1-?)[Man(?… FALSE  FALSE     
#>  4 Man(4)Gal(2)GlcNAc(4)N… Man(4)Gal(2)GlcNA… Neu5Ac(?2-?)Gal… TRUE   TRUE      
#>  5 Man(3)Gal(1)GlcNAc(3)   Man(3)Gal(1)GlcNA… Gal(?1-?)GlcNAc… TRUE   FALSE     
#>  6 Man(3)Gal(2)GlcNAc(4)F… Man(3)Gal(2)GlcNA… Gal(?1-?)GlcNAc… TRUE   FALSE     
#>  7 Man(3)GlcNAc(3)Fuc(1)   Man(3)GlcNAc(3)Fu… GlcNAc(?1-?)Man… FALSE  FALSE     
#>  8 Man(3)GlcNAc(4)         Man(3)GlcNAc(4)    GlcNAc(?1-?)Man… FALSE  FALSE     
#>  9 Man(3)Gal(2)GlcNAc(5)N… Man(3)Gal(2)GlcNA… Neu5Ac(?2-?)Gal… TRUE   TRUE      
#> 10 Man(3)Gal(1)GlcNAc(5)F… Man(3)Gal(1)GlcNA… Neu5Ac(?2-?)Gal… TRUE   TRUE      
#> # ℹ 57 more rows

exp |>
  add_motifs_int(c(
    lacnac = "Gal(??-?)GlcNAc(??-",
    sia_lacnac = "Neu5Ac(??-?)Gal(??-?)GlcNAc(??-"
  )) |>
  get_var_info()
#> # A tibble: 67 × 5
#>    variable                glycan_composition glycan_structure lacnac sia_lacnac
#>    <glue>                  <comp>             <struct>          <int>      <int>
#>  1 Man(3)GlcNAc(3)         Man(3)GlcNAc(3)    GlcNAc(?1-?)Man…      0          0
#>  2 Man(3)GlcNAc(7)         Man(3)GlcNAc(7)    GlcNAc(?1-?)[Gl…      0          0
#>  3 Man(5)GlcNAc(2)         Man(5)GlcNAc(2)    Man(?1-?)[Man(?…      0          0
#>  4 Man(4)Gal(2)GlcNAc(4)N… Man(4)Gal(2)GlcNA… Neu5Ac(?2-?)Gal…      2          2
#>  5 Man(3)Gal(1)GlcNAc(3)   Man(3)Gal(1)GlcNA… Gal(?1-?)GlcNAc…      1          0
#>  6 Man(3)Gal(2)GlcNAc(4)F… Man(3)Gal(2)GlcNA… Gal(?1-?)GlcNAc…      2          0
#>  7 Man(3)GlcNAc(3)Fuc(1)   Man(3)GlcNAc(3)Fu… GlcNAc(?1-?)Man…      0          0
#>  8 Man(3)GlcNAc(4)         Man(3)GlcNAc(4)    GlcNAc(?1-?)Man…      0          0
#>  9 Man(3)Gal(2)GlcNAc(5)N… Man(3)Gal(2)GlcNA… Neu5Ac(?2-?)Gal…      2          1
#> 10 Man(3)Gal(1)GlcNAc(5)F… Man(3)Gal(1)GlcNA… Neu5Ac(?2-?)Gal…      1          1
#> # ℹ 57 more rows
…
